{
  "forge_marker": 1,
  "defaults": {
    "transform": "forge:default-block",
    "model": "gemstones:crucible.b3d",
    "custom": { "mesh": ["Basin"] },
    "textures": {

    }
  },

  "variants": {
    "normal": [{}],
    "inventory": [{}],
    "has_bucket": {
      "true": { },
      "false": {}
    }
  }
}